projeto-quartus/simulation/qsim/relogio.msim.vcd
$comment
	File created using the following command:
		vcd file relogio.msim.vcd -direction
$end
$date
	Wed Dec 20 00:17:28 2023
$end
$version
	ModelSim Version 10.1d
$end
$timescale
	1ps
$end
$scope module ContadorSegundos_vlg_vec_tst $end
$var reg 1 ! clk $end
$var reg 1 " reset $end
$var wire 1 # sec_tick $end
$var wire 1 $ segundos_display0 [3] $end
$var wire 1 % segundos_display0 [2] $end
$var wire 1 & segundos_display0 [1] $end
$var wire 1 ' segundos_display0 [0] $end
$var wire 1 ( segundos_display1 [3] $end
$var wire 1 ) segundos_display1 [2] $end
$var wire 1 * segundos_display1 [1] $end
$var wire 1 + segundos_display1 [0] $end
$var wire 1 , sampler $end
$scope module i1 $end
$var wire 1 - gnd $end
$var wire 1 . vcc $end
$var wire 1 / unknown $end
$var tri1 1 0 devclrn $end
$var tri1 1 1 devpor $end
$var tri1 1 2 devoe $end
$var wire 1 3 proximo_estado_segundos[2]~7_combout $end
$var wire 1 4 proximo_estado_segundos[3]~9_combout $end
$var wire 1 5 clk~combout $end
$var wire 1 6 clk~clkctrl_outclk $end
$var wire 1 7 proximo_estado_segundos[0]~15_combout $end
$var wire 1 8 proximo_estado_segundos[1]~5_combout $end
$var wire 1 9 reset~combout $end
$var wire 1 : contador_segundos~3_combout $end
$var wire 1 ; reset~clkctrl_outclk $end
$var wire 1 < contador_segundos~5_combout $end
$var wire 1 = contador_segundos~4_combout $end
$var wire 1 > Equal0~0_combout $end
$var wire 1 ? contador_segundos~2_combout $end
$var wire 1 @ proximo_estado_segundos[1]~6 $end
$var wire 1 A proximo_estado_segundos[2]~8 $end
$var wire 1 B proximo_estado_segundos[3]~10 $end
$var wire 1 C proximo_estado_segundos[4]~11_combout $end
$var wire 1 D contador_segundos~0_combout $end
$var wire 1 E proximo_estado_segundos[4]~12 $end
$var wire 1 F proximo_estado_segundos[5]~13_combout $end
$var wire 1 G contador_segundos~1_combout $end
$var wire 1 H Equal0~1_combout $end
$var wire 1 I sec_tick~reg0_regout $end
$var wire 1 J proximo_estado_segundos [5] $end
$var wire 1 K proximo_estado_segundos [4] $end
$var wire 1 L proximo_estado_segundos [3] $end
$var wire 1 M proximo_estado_segundos [2] $end
$var wire 1 N proximo_estado_segundos [1] $end
$var wire 1 O proximo_estado_segundos [0] $end
$var wire 1 P contador_segundos [5] $end
$var wire 1 Q contador_segundos [4] $end
$var wire 1 R contador_segundos [3] $end
$var wire 1 S contador_segundos [2] $end
$var wire 1 T contador_segundos [1] $end
$var wire 1 U contador_segundos [0] $end
$upscope $end
$upscope $end
$enddefinitions $end
#0
$dumpvars
0!
0"
0#
0'
0&
0%
0$
0+
0*
0)
0(
x,
0-
1.
x/
10
11
12
03
04
05
06
17
08
09
0:
0;
0<
0=
0>
0?
0@
1A
0B
0C
0D
1E
0F
0G
0H
0I
0O
0N
0M
0L
0K
0J
0U
0T
0S
0R
0Q
0P
$end
#5000
1!
15
16
0,
1O
1?
#10000
0!
05
06
1,
#15000
1!
15
16
0,
1U
18
07
1+
#20000
0!
05
06
1,
#25000
1!
15
16
0,
1N
0O
1:
0?
#30000
0!
05
06
1,
#35000
1!
15
16
0,
0U
1T
17
0+
1*
#40000
0!
05
06
1,
#45000
1!
15
16
0,
1O
1?
#50000
0!
05
06
1,
#55000
1!
15
16
0,
1U
1@
08
07
1+
13
#60000
0!
05
06
1,
#65000
1!
15
16
0,
0N
0O
1M
0:
0?
1=
#70000
0!
05
06
1,
#75000
1!
15
16
0,
0U
1S
0T
0@
17
0A
03
0+
1)
0*
1A
13
14
04
#80000
0!
05
06
1,
#85000
1!
15
16
0,
1O
1?
#90000
0!
05
06
1,
#95000
1!
15
16
0,
1U
18
07
1+
#100000
0!
05
06
1,
#105000
1!
15
16
0,
1N
0O
1:
0?
#110000
0!
05
06
1,
#115000
1!
15
16
0,
0U
1T
17
0+
1*
#120000
0!
05
06
1,
#125000
1!
15
16
0,
1O
1?
#130000
0!
05
06
1,
#135000
1!
15
16
0,
1U
1@
08
07
1+
0A
03
14
#140000
0!
05
06
1,
#145000
1!
15
16
0,
0N
0O
1L
0M
0:
0?
1<
0=
#150000
0!
05
06
1,
#155000
1!
15
16
0,
0U
0S
1R
0T
0@
17
1A
13
1B
04
0+
0)
0*
03
0B
14
1C
0C
#160000
0!
05
06
1,
#165000
1!
15
16
0,
1O
1?
#170000
0!
05
06
1,
#175000
1!
15
16
0,
1U
18
07
1+
#180000
0!
05
06
1,
#185000
1!
15
16
0,
1N
0O
1:
0?
#190000
0!
05
06
1,
#195000
1!
15
16
0,
0U
1T
17
0+
1*
#200000
0!
05
06
1,
#205000
1!
15
16
0,
1O
1?
#210000
0!
05
06
1,
#215000
1!
15
16
0,
1U
1@
08
07
1+
13
#220000
0!
05
06
1,
#225000
1!
15
16
0,
0N
0O
1M
0:
0?
1=
#230000
0!
05
06
1,
#235000
1!
15
16
0,
0U
1S
0T
0@
17
0A
03
0+
1)
0*
1A
13
1B
04
0B
14
1C
0C
#240000
0!
05
06
1,
#245000
1!
15
16
0,
1O
1?
#250000
0!
05
06
1,
#255000
1!
15
16
0,
1U
18
07
1+
#260000
0!
05
06
1,
#265000
1!
15
16
0,
1N
0O
1:
0?
#270000
0!
05
06
1,
#275000
1!
15
16
0,
0U
1T
17
0+
1*
#280000
0!
05
06
1,
#285000
1!
15
16
0,
1O
1?
#290000
0!
05
06
1,
#295000
1!
15
16
0,
1U
1@
08
07
1+
0A
03
1B
04
1C
#300000
0!
05
06
1,
#305000
1!
15
16
0,
1K
0N
0O
0L
0M
1D
0:
0?
0<
0=
#310000
0!
05
06
1,
#315000
1!
15
16
0,
1Q
0U
0S
0R
0T
0E
0C
0@
17
1A
13
0B
14
1'
0+
0)
0*
1F
03
04
1E
1C
0F
#320000
0!
05
06
1,
#325000
1!
15
16
0,
1O
1?
#330000
0!
05
06
1,
#335000
1!
15
16
0,
1U
18
07
1+
#340000
0!
05
06
1,
#345000
1!
15
16
0,
1N
0O
1:
0?
#350000
0!
05
06
1,
#355000
1!
15
16
0,
0U
1T
17
0+
1*
#360000
0!
05
06
1,
#365000
1!
15
16
0,
1O
1?
#370000
0!
05
06
1,
#375000
1!
15
16
0,
1U
1@
08
07
1+
13
#380000
0!
05
06
1,
#385000
1!
15
16
0,
0N
0O
1M
0:
0?
1=
#390000
0!
05
06
1,
#395000
1!
15
16
0,
0U
1S
0T
0@
17
0A
03
0+
1)
0*
1A
13
14
04
#400000
0!
05
06
1,
#405000
1!
15
16
0,
1O
1?
#410000
0!
05
06
1,
#415000
1!
15
16
0,
1U
18
07
1+
#420000
0!
05
06
1,
#425000
1!
15
16
0,
1N
0O
1:
0?
#430000
0!
05
06
1,
#435000
1!
15
16
0,
0U
1T
17
0+
1*
#440000
0!
05
06
1,
#445000
1!
15
16
0,
1O
1?
#450000
0!
05
06
1,
#455000
1!
15
16
0,
1U
1@
08
07
1+
0A
03
14
#460000
0!
05
06
1,
#465000
1!
15
16
0,
0N
0O
1L
0M
0:
0?
1<
0=
#470000
0!
05
06
1,
#475000
1!
15
16
0,
0U
0S
1R
0T
0@
17
1A
13
1B
04
0+
0)
0*
03
0B
14
0E
0C
1E
1C
1F
0F
#480000
0!
05
06
1,
#485000
1!
15
16
0,
1O
1?
#490000
0!
05
06
1,
#495000
1!
15
16
0,
1U
18
07
1+
#500000
0!
05
06
1,
#505000
1!
15
16
0,
1N
0O
1:
0?
#510000
0!
05
06
1,
#515000
1!
15
16
0,
0U
1T
17
0+
1*
#520000
0!
05
06
1,
#525000
1!
15
16
0,
1O
1?
#530000
0!
05
06
1,
#535000
1!
15
16
0,
1U
1@
08
07
1+
13
#540000
0!
05
06
1,
#545000
1!
15
16
0,
0N
0O
1M
0:
0?
1=
#550000
0!
05
06
1,
#555000
1!
15
16
0,
0U
1S
0T
0@
17
0A
03
0+
1)
0*
1A
13
1B
04
0B
14
0E
0C
1E
1C
1F
0F
#560000
0!
05
06
1,
#565000
1!
15
16
0,
1O
1?
#570000
0!
05
06
1,
#575000
1!
15
16
0,
1U
18
07
1+
#580000
0!
05
06
1,
#585000
1!
15
16
0,
1N
0O
1:
0?
#590000
0!
05
06
1,
#595000
1!
15
16
0,
0U
1T
17
0+
1*
#600000
0!
05
06
1,
#605000
1!
15
16
0,
1O
1?
#610000
0!
05
06
1,
#615000
1!
15
16
0,
1U
1@
08
07
1+
0A
03
1B
04
0E
0C
1F
#620000
0!
05
06
1,
#625000
1!
15
16
0,
1J
0K
0N
0O
0L
0M
1G
0D
0:
0?
0<
0=
#630000
0!
05
06
1,
#635000
1!
15
16
0,
1P
0Q
0U
0S
0R
0T
0F
1E
1C
0@
17
1A
13
0B
14
1&
0'
0+
0)
0*
1F
03
04
0C
#640000
0!
05
06
1,
#645000
1!
15
16
0,
1O
1?
#650000
0!
05
06
1,
#655000
1!
15
16
0,
1U
18
07
1+
#660000
0!
05
06
1,
#665000
1!
15
16
0,
1N
0O
1:
0?
#670000
0!
05
06
1,
#675000
1!
15
16
0,
0U
1T
17
0+
1*
#680000
0!
05
06
1,
#685000
1!
15
16
0,
1O
1?
#690000
0!
05
06
1,
#695000
1!
15
16
0,
1U
1@
08
07
1+
13
#700000
0!
05
06
1,
#705000
1!
15
16
0,
0N
0O
1M
0:
0?
1=
#710000
0!
05
06
1,
#715000
1!
15
16
0,
0U
1S
0T
0@
17
0A
03
0+
1)
0*
1A
13
14
04
#720000
0!
05
06
1,
#725000
1!
15
16
0,
1O
1?
#730000
0!
05
06
1,
#735000
1!
15
16
0,
1U
18
07
1+
#740000
0!
05
06
1,
#745000
1!
15
16
0,
1N
0O
1:
0?
#750000
0!
05
06
1,
#755000
1!
15
16
0,
0U
1T
17
0+
1*
#760000
0!
05
06
1,
#765000
1!
15
16
0,
1O
1?
#770000
0!
05
06
1,
#775000
1!
15
16
0,
1U
1@
08
07
1+
0A
03
14
#780000
0!
05
06
1,
#785000
1!
15
16
0,
0N
0O
1L
0M
0:
0?
1<
0=
#790000
0!
05
06
1,
#795000
1!
15
16
0,
0U
0S
1R
0T
0@
17
1A
13
1B
04
0+
0)
0*
03
0B
14
1C
0C
#800000
0!
05
06
1,
#805000
1!
15
16
0,
1O
1?
#810000
0!
05
06
1,
#815000
1!
15
16
0,
1U
18
07
1+
#820000
0!
05
06
1,
#825000
1!
15
16
0,
1N
0O
1:
0?
#830000
0!
05
06
1,
#835000
1!
15
16
0,
0U
1T
17
0+
1*
#840000
0!
05
06
1,
#845000
1!
15
16
0,
1O
1?
#850000
0!
05
06
1,
#855000
1!
15
16
0,
1U
1@
08
07
1+
13
#860000
0!
05
06
1,
#865000
1!
15
16
0,
0N
0O
1M
0:
0?
1=
#870000
0!
05
06
1,
#875000
1!
15
16
0,
0U
1S
0T
0@
17
0A
03
0+
1)
0*
1A
13
1B
04
0B
14
1C
0C
#880000
0!
05
06
1,
#885000
1!
15
16
0,
1O
1?
#890000
0!
05
06
1,
#895000
1!
15
16
0,
1U
18
07
1+
#900000
0!
05
06
1,
#905000
1!
15
16
0,
1N
0O
1:
0?
#910000
0!
05
06
1,
#915000
1!
15
16
0,
0U
1T
17
0+
1*
#920000
0!
05
06
1,
#925000
1!
15
16
0,
1O
1?
#930000
0!
05
06
1,
#935000
1!
15
16
0,
1U
1@
08
07
1+
0A
03
1B
04
1C
#940000
0!
05
06
1,
#945000
1!
15
16
0,
1K
0N
0O
0L
0M
1D
0:
0?
0<
0=
#950000
0!
05
06
1,
#955000
1!
15
16
0,
1Q
0U
0S
0R
0T
0E
0C
0@
17
1A
13
0B
14
1'
0+
0)
0*
0F
03
04
1E
1C
1F
#960000
0!
05
06
1,
#965000
1!
15
16
0,
1O
1?
#970000
0!
05
06
1,
#975000
1!
15
16
0,
1U
18
07
1+
#980000
0!
05
06
1,
#985000
1!
15
16
0,
1N
0O
1:
0?
#990000
0!
05
06
1,
#995000
1!
15
16
0,
0U
1T
17
0+
1*
